 {
  "default_param" : "8.8.8.8 -n 100",
  "size_multiplier" : "3",
  "text_size" : "10",
  "standart_ping" : "200",
  "background_color1" : "#000000",
  "background_color2" : "#101010",
  "debug_output" : "true",
  "debug_output_text" :
  [
   "Обмен пакетами с 8.8.8.8 по с 32 байтами данных:",
   "Статистика Ping для 8.8.8.8:",
   "Превышен интервал ожидания для запроса.",
   "Ответ от 8.8.8.8: число байт=32 время=67мс TTL=45"
  ],
  "key_config" :
  {
   "mode" : "F",
   "pause": "P",
   "clean": "Q",
   "stats": "B",
   "save" : "S",
   "time" : "T",
   "copy" : "C",
   "close": "E"
  },
  "ignore" :
  [
   "Обмен пакетами.*",
   "Статистика.*",
   ".*Пакетов: отправлено.*",
   "Приблизительное время.*",
   ".*Минимальное = .*мсек, Максимальное = .* мсек,.*"
  ],
  "colors" :
  [
   ["Ответ от.*","#009900"],
   ["Ошибка.*","#000099"],
   ["Превышен.*","#990000"]
  ]
 }